…
``` r
library(ggplot2)

ggplot(data = feow_sf)+
  geom_sf()
```

<img src="man/figures/README-unnamed-chunk-2-1.png" width="100%" />

We can see the list of all ecoregions, from [FEOW
website](https://www.feow.org/ecoregions/list)

``` r
ecoregions_list
#> # A tibble: 426 × 4
#>       id realm    major_habitat_type                       ecoregion            
#>    <int> <chr>    <chr>                                    <chr>                
#>  1   101 Nearctic Polar freshwaters                        Alaskan Coastal      
#>  2   102 Nearctic Polar freshwaters                        Upper Yukon          
#>  3   103 Nearctic Temperate coastal rivers                 Alaska & Canada Paci…
#>  4   104 Nearctic Temperate floodplain rivers and wetlands Upper Mackenzie      
#>  5   105 Nearctic Polar freshwaters                        Lower Mackenzie      
#>  6   106 Nearctic Polar freshwaters                        Central Arctic Coast…
#>  7   107 Nearctic Temperate upland rivers                  Upper Saskatchewan   
#>  8   108 Nearctic Temperate upland rivers                  Middle Saskatchewan  
#>  9   109 Nearctic Large lakes                              English - Winnipeg L…
#> 10   110 Nearctic Temperate coastal rivers                 Southern Hudson Bay  
#> # ℹ 416 more rows
```
…
